<svg width="24" height="24" viewBox="0 0 24 24" fill="none" xmlns="http://www.w3.org/2000/svg">
<path d="M5.20852 12.995L16.3785 12.995L11.4985 17.875C11.1085 18.265 11.1085 18.905 11.4985 19.295C11.8885 19.685 12.5185 19.685 12.9085 19.295L19.4985 12.705C19.8885 12.315 19.8885 11.685 19.4985 11.295L12.9085 4.70502C12.5185 4.31502 11.8885 4.31502 11.4985 4.70502C11.1085 5.09502 11.1085 5.72502 11.4985 6.11502L16.3785 10.995L5.20852 10.995C4.65852 10.995 4.20852 11.445 4.20852 11.995C4.20852 12.545 4.65852 12.995 5.20852 12.995Z" fill="#3F7FE0"/>
</svg>
