<svg width="142" height="48" viewBox="0 0 142 48" fill="none" xmlns="http://www.w3.org/2000/svg">
<path d="M90.7557 21.8994V24.0467H89.4221V25.4548H90.7557V30.2395C90.7557 31.8733 91.488 32.5268 93.3303 32.5268C93.6541 32.5268 93.9624 32.4879 94.2322 32.4412V31.0486C94.001 31.0719 93.8545 31.0875 93.6001 31.0875C92.7753 31.0875 92.413 30.6985 92.413 29.8116V25.4548H94.2322V24.0467H92.413V21.8994H90.7557Z" fill="#EEEFF2"/>
<path d="M98.9255 32.6435C101.377 32.6435 102.88 30.9863 102.88 28.24C102.88 25.5093 101.369 23.8444 98.9255 23.8444C96.4742 23.8444 94.9633 25.5093 94.9633 28.24C94.9633 30.9863 96.4664 32.6435 98.9255 32.6435ZM98.9255 31.1575C97.484 31.1575 96.6746 30.0917 96.6746 28.24C96.6746 26.404 97.484 25.3303 98.9255 25.3303C100.359 25.3303 101.176 26.404 101.176 28.24C101.176 30.0839 100.359 31.1575 98.9255 31.1575Z" fill="#EEEFF2"/>
<path d="M104.166 32.4801H105.823V27.4776C105.823 26.2873 106.71 25.4859 107.966 25.4859C108.259 25.4859 108.753 25.5404 108.891 25.5871V23.9377C108.714 23.8911 108.398 23.8677 108.151 23.8677C107.057 23.8677 106.124 24.4746 105.885 25.307H105.762V24.0078H104.166V32.4801Z" fill="#EEEFF2"/>
<path d="M113.006 25.2681C114.232 25.2681 115.034 26.1317 115.072 27.462H110.833C110.925 26.1395 111.781 25.2681 113.006 25.2681ZM115.065 30.1928C114.756 30.8541 114.07 31.2197 113.068 31.2197C111.742 31.2197 110.887 30.2784 110.833 28.7924V28.699H116.76V28.1156C116.76 25.4548 115.35 23.8444 113.014 23.8444C110.648 23.8444 109.144 25.5637 109.144 28.2712C109.144 30.9786 110.617 32.6435 113.022 32.6435C114.941 32.6435 116.283 31.7099 116.66 30.1928H115.065Z" fill="#EEEFF2"/>
<path d="M79.8872 29.3514C80.015 31.4318 81.7328 32.7623 84.2895 32.7623C87.0219 32.7623 88.7317 31.3673 88.7317 29.1417C88.7317 27.3919 87.757 26.4243 85.392 25.8679L84.1217 25.5534C82.6196 25.1986 82.0124 24.7229 82.0124 23.8923C82.0124 22.844 82.9552 22.1586 84.3694 22.1586C85.7116 22.1586 86.6384 22.8279 86.8062 23.9004L88.5479 23.9004C88.4441 21.9409 86.7343 20.562 84.3933 20.562C81.8766 20.562 80.1988 21.9409 80.1988 24.0133C80.1988 25.7227 81.1496 26.7388 83.2348 27.2306L84.7209 27.5935C86.2469 27.9564 86.9181 28.4886 86.9181 29.3756C86.9181 30.4077 85.8634 31.1576 84.4253 31.1576C82.8833 31.1576 81.8127 30.4561 81.6609 29.3514H79.8872Z" fill="#EEEFF2"/>
<path d="M62.719 23.8677C61.5781 23.8677 60.5915 24.4434 60.0827 25.4081H59.9594V24.0078H58.3637V35.2964H60.021V31.1964H60.1521C60.5915 32.0911 61.5396 32.6201 62.7344 32.6201C64.8542 32.6201 66.2032 30.9319 66.2032 28.24C66.2032 25.5482 64.8542 23.8677 62.719 23.8677ZM62.2488 31.1186C60.8613 31.1186 59.9902 30.0139 59.9902 28.2478C59.9902 26.474 60.8613 25.3692 62.2565 25.3692C63.6594 25.3692 64.4997 26.4507 64.4997 28.24C64.4997 30.0372 63.6594 31.1186 62.2488 31.1186Z" fill="#EEEFF2"/>
<path d="M72.0025 23.8677C70.8616 23.8677 69.8749 24.4434 69.3662 25.4081H69.2428V24.0078H67.6472V35.2964H69.3045V31.1964H69.4356C69.8749 32.0911 70.8231 32.6201 72.0179 32.6201C74.1377 32.6201 75.4867 30.9319 75.4867 28.24C75.4867 25.5482 74.1377 23.8677 72.0025 23.8677ZM71.5323 31.1186C70.1447 31.1186 69.2737 30.0139 69.2737 28.2478C69.2737 26.474 70.1447 25.3692 71.54 25.3692C72.9429 25.3692 73.7831 26.4507 73.7831 28.24C73.7831 30.0372 72.9429 31.1186 71.5323 31.1186Z" fill="#EEEFF2"/>
<path d="M55.3902 32.4801H57.2917L53.1291 20.8442H51.2036L47.041 32.4801H48.8786L49.9412 29.3917H54.3355L55.3902 32.4801ZM52.0745 22.9569H52.2103L53.8801 27.8757H50.3967L52.0745 22.9569Z" fill="#EEEFF2"/>
<path d="M47.5111 12.9856C47.6626 12.8341 47.9107 12.7009 48.2554 12.586C48.6002 12.4658 48.9658 12.4058 49.3524 12.4058C49.7337 12.4058 50.0706 12.4684 50.3631 12.5938C50.6556 12.7192 50.8828 12.8968 51.0447 13.1266C51.2066 13.3512 51.2876 13.615 51.2876 13.9179C51.2876 14.247 51.1962 14.5134 51.0134 14.7171C50.8306 14.9156 50.6086 15.0488 50.3474 15.1167C50.5198 15.1428 50.6921 15.2107 50.8645 15.3204C51.0369 15.4301 51.1805 15.5816 51.2954 15.7748C51.4104 15.9681 51.4678 16.1953 51.4678 16.4565C51.4678 16.7699 51.379 17.0519 51.2014 17.3027C51.029 17.5482 50.7836 17.7414 50.4649 17.8825C50.1515 18.0235 49.7911 18.094 49.3837 18.094C48.9867 18.094 48.6054 18.0365 48.2398 17.9216C47.8741 17.8015 47.6156 17.6657 47.4641 17.5142V16.7699C47.673 16.9631 47.9499 17.1251 48.2946 17.2556C48.6446 17.381 48.9946 17.4437 49.3445 17.4437C49.7624 17.4437 50.1019 17.3523 50.3631 17.1695C50.6242 16.9866 50.7548 16.7411 50.7548 16.433C50.7548 16.1248 50.6268 15.8924 50.3709 15.7357C50.1202 15.5737 49.8042 15.4928 49.4229 15.4928H48.5688V14.8581H49.3915C49.7415 14.8581 50.0262 14.7719 50.2455 14.5996C50.4649 14.4272 50.5746 14.2078 50.5746 13.9414C50.5746 13.6594 50.4597 13.4426 50.2299 13.2911C50 13.1344 49.6945 13.0561 49.3132 13.0561C48.9737 13.0561 48.6394 13.1188 48.3103 13.2441C47.9864 13.3695 47.7201 13.5314 47.5111 13.7299V12.9856ZM55.8813 17.9921C55.756 18.06 55.6202 18.094 55.4739 18.094C55.2911 18.094 55.1292 18.047 54.9881 17.953C54.8523 17.8589 54.7661 17.731 54.7296 17.5691C54.4684 17.919 54.0819 18.094 53.57 18.094C53.173 18.094 52.8413 17.9843 52.5749 17.7649C52.3085 17.5455 52.1753 17.2504 52.1753 16.8796C52.1753 16.4983 52.3268 16.1979 52.6298 15.9785C52.9327 15.7592 53.314 15.6495 53.7737 15.6495C54.1341 15.6495 54.4475 15.6991 54.7139 15.7983V15.4301C54.7139 15.1585 54.6277 14.9521 54.4553 14.8111C54.283 14.6649 54.0479 14.5917 53.7502 14.5917C53.4995 14.5917 53.2514 14.6387 53.0059 14.7328C52.7656 14.8216 52.5697 14.9365 52.4182 15.0775V14.4115C52.554 14.2966 52.7447 14.1948 52.9902 14.106C53.2357 14.0172 53.5073 13.9728 53.805 13.9728C54.2908 13.9728 54.6747 14.1007 54.9568 14.3567C55.2388 14.6126 55.3799 14.9574 55.3799 15.3909V17.2321C55.3799 17.3262 55.406 17.3993 55.4582 17.4515C55.5105 17.4985 55.5836 17.522 55.6776 17.522C55.7612 17.522 55.8291 17.5064 55.8813 17.475V17.9921ZM52.857 16.8796C52.857 17.0728 52.9275 17.2269 53.0685 17.3418C53.2148 17.4515 53.4159 17.5064 53.6718 17.5064C54.121 17.5064 54.4684 17.3523 54.7139 17.0441V16.339C54.4318 16.2449 54.1289 16.1979 53.805 16.1979C53.5386 16.1979 53.314 16.258 53.1312 16.3781C52.9484 16.4983 52.857 16.6654 52.857 16.8796ZM56.6495 14.059H59.329V14.6623H57.3233V18.0078H56.6495V14.059ZM60.1615 14.059H60.8118V14.6074C60.9267 14.4246 61.086 14.2731 61.2897 14.153C61.4934 14.0328 61.7441 13.9728 62.0419 13.9728C62.35 13.9728 62.6347 14.0563 62.8959 14.2235C63.157 14.3854 63.3634 14.6231 63.5148 14.9365C63.6715 15.2447 63.7499 15.6103 63.7499 16.0334C63.7499 16.4565 63.6715 16.8247 63.5148 17.1381C63.3634 17.4463 63.157 17.684 62.8959 17.8511C62.6347 18.013 62.35 18.094 62.0419 18.094C61.7546 18.094 61.5117 18.0392 61.3132 17.9295C61.1147 17.8198 60.9554 17.6787 60.8353 17.5064V19.5043H60.1615V14.059ZM60.8353 16.9579C60.9658 17.1198 61.1252 17.2478 61.3132 17.3418C61.5065 17.4359 61.7128 17.4829 61.9322 17.4829C62.2769 17.4829 62.5511 17.3523 62.7548 17.0911C62.9638 16.8247 63.0682 16.4721 63.0682 16.0334C63.0682 15.5998 62.9638 15.2499 62.7548 14.9835C62.5511 14.7171 62.2769 14.5839 61.9322 14.5839C61.7128 14.5839 61.5065 14.6309 61.3132 14.7249C61.1252 14.819 60.9658 14.9469 60.8353 15.1089V16.9579ZM67.9126 14.059L66.4474 17.8198C66.2176 18.41 65.9616 18.8592 65.6796 19.1674C65.3975 19.4808 65.058 19.6375 64.661 19.6375C64.4782 19.6375 64.3241 19.6062 64.1988 19.5435V18.9245C64.298 18.9872 64.4234 19.0185 64.5748 19.0185C64.8151 19.0185 65.0188 18.9323 65.186 18.76C65.3583 18.5928 65.5255 18.3317 65.6874 17.9765L64.1753 14.059H64.9039L66.0557 17.1616L67.2152 14.059H67.9126ZM68.4832 14.388C68.6086 14.2731 68.8045 14.1765 69.0709 14.0981C69.3373 14.0146 69.6063 13.9728 69.8779 13.9728C70.3375 13.9728 70.7006 14.0746 70.9669 14.2783C71.2386 14.4768 71.3744 14.7406 71.3744 15.0697C71.3744 15.2995 71.3117 15.4875 71.1863 15.6338C71.061 15.7801 70.899 15.8819 70.7006 15.9394C70.9199 15.9707 71.1132 16.0699 71.2803 16.2371C71.4475 16.399 71.5311 16.6106 71.5311 16.8717C71.5311 17.253 71.3744 17.5534 71.061 17.7728C70.7476 17.9869 70.3532 18.094 69.8779 18.094C69.5592 18.094 69.2694 18.0496 69.0082 17.9608C68.747 17.872 68.5511 17.7623 68.4206 17.6317V16.9501C68.572 17.1016 68.7836 17.2295 69.0552 17.334C69.3268 17.4385 69.5932 17.4907 69.8544 17.4907C70.1625 17.4907 70.4054 17.4385 70.583 17.334C70.7658 17.2295 70.8573 17.0728 70.8573 16.8639C70.8573 16.6759 70.7789 16.5322 70.6222 16.433C70.4707 16.3337 70.2513 16.2841 69.9641 16.2841H69.3216V15.7043H69.9014C70.1469 15.7043 70.3401 15.6547 70.4812 15.5554C70.6274 15.4562 70.7006 15.3204 70.7006 15.148C70.7006 14.9652 70.6222 14.8242 70.4655 14.7249C70.3088 14.6257 70.0946 14.5761 69.823 14.5761C69.5775 14.5761 69.3268 14.6257 69.0709 14.7249C68.8149 14.819 68.619 14.9313 68.4832 15.0618V14.388ZM75.8026 18.0078H75.1366V15.0775L73.123 18.0078H72.4649V14.059H73.1309V16.9814L75.1445 14.059H75.8026V18.0078ZM76.6349 14.059H80.0431V14.6623H78.672V18.0078H77.9982V14.6623H76.6349V14.059ZM80.4706 16.0099C80.4706 15.6129 80.5463 15.2603 80.6978 14.9521C80.8545 14.6387 81.0713 14.3985 81.3481 14.2313C81.625 14.059 81.9384 13.9728 82.2883 13.9728C82.6278 13.9728 82.9256 14.0511 83.1815 14.2078C83.4375 14.3645 83.6359 14.5813 83.777 14.8581C83.918 15.135 83.9885 15.4484 83.9885 15.7983V16.2293H81.1757C81.1757 16.4434 81.2332 16.6471 81.3481 16.8404C81.4683 17.0284 81.6354 17.1825 81.8496 17.3027C82.0689 17.4176 82.3223 17.475 82.6096 17.475C82.8864 17.475 83.1371 17.4306 83.3617 17.3418C83.5863 17.253 83.7796 17.1381 83.9415 16.9971V17.6787C83.8057 17.7937 83.6177 17.8929 83.3774 17.9765C83.1371 18.0548 82.8681 18.094 82.5704 18.094C82.163 18.094 81.7999 18.0078 81.4813 17.8354C81.1627 17.6631 80.9146 17.4202 80.737 17.1068C80.5594 16.7882 80.4706 16.4225 80.4706 16.0099ZM83.3225 15.6651C83.3069 15.357 83.205 15.0984 83.017 14.8895C82.8289 14.6805 82.5834 14.5761 82.2805 14.5761C81.9723 14.5761 81.719 14.6779 81.5205 14.8816C81.322 15.0801 81.2071 15.3413 81.1757 15.6651H83.3225ZM86.6965 14.059H88.4516C88.8485 14.059 89.1541 14.153 89.3683 14.341C89.5824 14.5291 89.6895 14.7719 89.6895 15.0697C89.6895 15.2838 89.6346 15.464 89.525 15.6103C89.4205 15.7513 89.2821 15.848 89.1097 15.9002C89.3186 15.9524 89.4936 16.0621 89.6346 16.2293C89.7809 16.3964 89.854 16.6132 89.854 16.8796C89.854 17.2086 89.7365 17.4803 89.5014 17.6944C89.2664 17.9033 88.9426 18.0078 88.5299 18.0078H86.6965V14.059ZM88.4751 17.4202C88.6892 17.4202 88.859 17.3706 88.9843 17.2713C89.1149 17.1669 89.1802 17.0232 89.1802 16.8404C89.1802 16.6576 89.1149 16.5165 88.9843 16.4173C88.859 16.3128 88.6892 16.2606 88.4751 16.2606H87.3625V17.4202H88.4751ZM88.3889 15.6965C88.5821 15.6965 88.7362 15.6495 88.8511 15.5554C88.9661 15.4614 89.0235 15.3308 89.0235 15.1637C89.0235 14.9965 88.9661 14.866 88.8511 14.7719C88.7362 14.6779 88.5821 14.6309 88.3889 14.6309H87.3625V15.6965H88.3889Z" fill="#EEEFF2"/>
<path d="M38.0608 22.9304C38.0809 21.3548 38.9193 19.8641 40.2492 19.0388C39.4102 17.8295 38.0049 17.0627 36.5428 17.0165C34.9834 16.8513 33.4716 17.9583 32.677 17.9583C31.8669 17.9583 30.6435 17.033 29.326 17.0603C27.6087 17.1163 26.0077 18.1017 25.1722 19.617C23.3762 22.7553 24.7159 27.3676 26.4363 29.9043C27.297 31.1465 28.303 32.5341 29.6193 32.4849C30.9074 32.431 31.3885 31.6559 32.9433 31.6559C34.4837 31.6559 34.9351 32.4849 36.2781 32.4536C37.6603 32.4309 38.5311 31.2059 39.3617 29.9519C39.9801 29.0668 40.456 28.0886 40.7717 27.0535C39.1474 26.3601 38.0627 24.7103 38.0608 22.9304Z" fill="#EEEFF2"/>
<path d="M35.5241 15.3482C36.2777 14.4352 36.649 13.2616 36.5591 12.0767C35.4077 12.1987 34.3441 12.7541 33.5803 13.6321C32.8334 14.49 32.4448 15.643 32.5182 16.7826C33.67 16.7946 34.8023 16.2542 35.5241 15.3482Z" fill="#EEEFF2"/>
<rect x="0.422513" y="0.430326" width="140.247" height="46.2267" rx="5.87628" stroke="#FAFAFA" stroke-width="0.783503"/>
</svg>
