<svg width="16" height="16" viewBox="0 0 16 16" fill="none" xmlns="http://www.w3.org/2000/svg">
<path fill-rule="evenodd" clip-rule="evenodd" d="M10.4714 13.1381C10.7318 12.8777 10.7318 12.4556 10.4714 12.1953L6.27616 8.00001L10.4714 3.80475C10.7318 3.5444 10.7318 3.12229 10.4714 2.86194C10.2111 2.60159 9.78897 2.60159 9.52862 2.86194L4.86195 7.52861C4.6016 7.78895 4.6016 8.21107 4.86195 8.47141L9.52862 13.1381C9.78897 13.3984 10.2111 13.3984 10.4714 13.1381Z" fill="#377BE1"/>
</svg>
