<svg width="60" height="60" viewBox="0 0 60 60" fill="none" xmlns="http://www.w3.org/2000/svg">
<circle cx="30" cy="30" r="29.9" fill="url(#paint0_linear_667_1453)" stroke="url(#paint1_linear_667_1453)" stroke-width="0.2"/>
<path fill-rule="evenodd" clip-rule="evenodd" d="M37.6768 27.466H41.6316C42.3842 27.466 43 28.096 43 28.866V36.202C43 41.2 39.5926 44 35.3779 44H24.6221C20.4074 44 17 41.2 17 36.202V23.798C17 18.8 20.4074 16 24.6221 16H30.4242C31.1768 16 31.7926 16.63 31.7926 17.4V21.446C31.7926 24.764 34.4337 27.466 37.6768 27.466ZM23.8421 38.05H29.3158C29.8768 38.05 30.3421 37.574 30.3421 37C30.3421 36.426 29.8768 35.95 29.3158 35.95H23.8421C23.2811 35.95 22.8158 36.426 22.8158 37C22.8158 37.574 23.2811 38.05 23.8421 38.05ZM23.8421 32.45H32.0526C32.6137 32.45 33.0789 31.974 33.0789 31.4C33.0789 30.826 32.6137 30.35 32.0526 30.35H23.8421C23.2811 30.35 22.8158 30.826 22.8158 31.4C22.8158 31.974 23.2811 32.45 23.8421 32.45ZM33.6675 16.91C33.6675 16.112 34.639 15.72 35.2001 16.294C36.5674 17.6929 38.6209 19.813 40.4172 21.6675C41.2815 22.5598 42.0863 23.3906 42.7264 24.05C43.2738 24.61 42.8632 25.548 42.0832 25.548H42.0829C40.5367 25.548 38.7305 25.548 37.4306 25.534C35.3643 25.534 33.6675 23.84 33.6675 21.796V16.91Z" fill="url(#paint2_linear_667_1453)"/>
<defs>
<linearGradient id="paint0_linear_667_1453" x1="30" y1="0" x2="30" y2="60" gradientUnits="userSpaceOnUse">
<stop stop-color="#53AF4C" stop-opacity="0.2"/>
<stop offset="1" stop-color="#53AF4C" stop-opacity="0.04"/>
</linearGradient>
<linearGradient id="paint1_linear_667_1453" x1="30.75" y1="-8.99307e-09" x2="30" y2="59.25" gradientUnits="userSpaceOnUse">
<stop stop-color="#53AF4C" stop-opacity="0.8"/>
<stop offset="1" stop-color="#53AF4C" stop-opacity="0.1"/>
</linearGradient>
<linearGradient id="paint2_linear_667_1453" x1="30" y1="16" x2="30" y2="44" gradientUnits="userSpaceOnUse">
<stop offset="0.21875" stop-color="#53AF4C"/>
<stop offset="1" stop-color="#53AF4C" stop-opacity="0.6"/>
</linearGradient>
</defs>
</svg>
