<svg width="55" height="55" viewBox="0 0 55 55" fill="none" xmlns="http://www.w3.org/2000/svg">
<path opacity="0.4" d="M47.2313 24.819C45.4667 22.7106 43.1979 21.3356 40.5625 20.7398C39.9667 18.0815 38.9354 15.7898 37.4229 13.8877C37.3771 13.819 37.3313 13.7502 37.2854 13.7044C32.2438 7.60855 23.9938 7.63147 18.425 10.794C13.6583 13.5211 9.6021 19.2731 11.7333 27.4773C6.8521 28.669 4.60626 32.9315 4.60626 36.7815C4.60626 41.0898 7.42501 45.9252 13.7042 46.3835H37.4C37.4229 46.3835 37.4688 46.3835 37.4917 46.3835C40.7458 46.3835 43.8625 45.169 46.2688 42.969C52.0208 37.8815 51.2646 29.5856 47.2313 24.819Z" fill="#CBD5E0"/>
<path d="M49.8667 20.0294C49.8667 22.0919 49.1333 24.0627 47.8042 25.5752C47.6437 25.3231 47.4375 25.071 47.2312 24.8189C45.4896 22.7335 43.1979 21.3127 40.5625 20.7398C39.9896 18.0814 38.9354 15.8127 37.4229 13.9106C37.4 13.8419 37.3312 13.7731 37.2854 13.7273C37.0562 13.4523 36.8042 13.2002 36.575 12.9481C37.9729 11.9856 39.5771 11.4814 41.3187 11.4814C46.0396 11.4814 49.8667 15.3085 49.8667 20.0294Z" fill="#CBD5E0"/>
</svg>
